<svg xmlns="http://www.w3.org/2000/svg" xmlns:xlink="http://www.w3.org/1999/xlink" viewBox="2670 962 375 667">
  <defs>
    <style>
      .cls-1 {
        clip-path: url(#clip-iPhone_6_7_10);
      }

      .cls-2 {
        stroke: rgba(0,0,0,0);
      }

      .cls-3 {
        font-size: 12px;
      }

      .cls-3, .cls-5, .cls-6 {
        font-family: Helvetica;
      }

      .cls-11, .cls-4, .cls-8 {
        fill: #fff;
      }

      .cls-4 {
        stroke: #e0e5ea;
        stroke-width: 0.5px;
      }

      .cls-5 {
        fill: #95989a;
        font-size: 10px;
      }

      .cls-6, .cls-7 {
        fill: #07cdff;
      }

      .cls-6 {
        font-size: 13px;
      }

      .cls-8 {
        font-size: 15px;
        font-family: Helvetica-Bold, Helvetica;
        font-weight: 700;
      }

      .cls-9 {
        stroke: none;
      }

      .cls-10 {
        fill: none;
      }

      .cls-12 {
        filter: url(#rectangle-40);
      }
    </style>
    <filter id="rectangle-40" x="2700" y="1270" width="315" height="71" filterUnits="userSpaceOnUse">
      <feOffset dy="10" input="SourceAlpha"/>
      <feGaussianBlur stdDeviation="5" result="blur"/>
      <feFlood flood-color="#79818b" flood-opacity="0.302"/>
      <feComposite operator="in" in2="blur"/>
      <feComposite in="SourceGraphic"/>
    </filter>
    <clipPath id="clip-iPhone_6_7_10">
      <rect x="2670" y="962" width="375" height="667"/>
    </clipPath>
  </defs>
  <g id="iPhone_6_7_10" data-name="iPhone 6/7 – 10" class="cls-1">
    <rect class="cls-11" x="2670" y="962" width="375" height="667"/>
    <g id="Status_bar_dark" data-name="Status bar dark" transform="translate(2670 962)">
      <g id="Indicator" transform="translate(-1364 8)">
        <circle id="ellipse" class="cls-2" cx="2.75" cy="2.75" r="2.75" transform="translate(1371.5 2.5)"/>
        <circle id="ellipse-2" data-name="ellipse" class="cls-2" cx="2.75" cy="2.75" r="2.75" transform="translate(1378.5 2.5)"/>
        <circle id="ellipse-3" data-name="ellipse" class="cls-2" cx="2.75" cy="2.75" r="2.75" transform="translate(1385.5 2.5)"/>
        <path id="path" class="cls-2" d="M23.75,5h0A2.25,2.25,0,1,0,21.5,2.75,2.25,2.25,0,0,0,23.75,5Zm0,.5h0A2.75,2.75,0,1,1,26.5,2.75,2.75,2.75,0,0,1,23.75,5.5Z" transform="translate(1371.5 2.5)"/>
        <path id="path-2" data-name="path" class="cls-2" d="M30.75,5h0A2.25,2.25,0,1,0,28.5,2.75,2.25,2.25,0,0,0,30.75,5Zm0,.5h0A2.75,2.75,0,1,1,33.5,2.75,2.75,2.75,0,0,1,30.75,5.5Z" transform="translate(1371.5 2.5)"/>
      </g>
      <path id="WiFi" class="cls-2" d="M90.5,7.021a7.716,7.716,0,0,1,5.063,1.886L96.5,7.868a8.8,8.8,0,0,0-12-.007L85.439,8.9A7.714,7.714,0,0,1,90.5,7.021Zm0,3a4.688,4.688,0,0,1,3.044,1.117l1-1.1a6.075,6.075,0,0,0-8.074,0l.994,1.1A4.686,4.686,0,0,1,90.5,10.02Zm2.048,2.217a3.084,3.084,0,0,0-4.094,0L90.5,14.5l2.048-2.263Z" transform="translate(-11 2)"/>
      <text id="Percent" class="cls-3" transform="translate(314.5 16.5)"><tspan x="0" y="0">42%</tspan></text>
      <text id="Time" class="cls-3" transform="translate(163.5 17.5)"><tspan x="0" y="0">9:41 AM</tspan></text>
      <text id="Carrier" class="cls-3" transform="translate(44.5 16.5)"><tspan x="0" y="0">STC</tspan></text>
      <path id="Bluetooth" d="M306.428,14.369V10.811l1.712,1.864-1.712,1.694Zm1.791-7.022-1.791,1.8V5.735l1.791,1.611Zm-1.36,2.664,2.657-2.664L305.551,3.5h-.094V8.85l-2.691-2.821-.766.8,3.238,3.182L302,13.192l.766.8,2.691-2.821v5.349h.171l3.925-3.856-2.7-2.654Z" transform="translate(-0.5 3)"/>
      <g id="Battery" transform="translate(-1364 8)">
        <path id="path-3" data-name="path" class="cls-2" d="M1.5,1.026h0a1.026,1.026,0,0,0-1,1.053V8.921a1.029,1.029,0,0,0,1,1.053H21a1.026,1.026,0,0,0,1-1.053V2.079a1.029,1.029,0,0,0-1-1.053ZM1.5.5H21a1.543,1.543,0,0,1,1.5,1.579V8.921A1.54,1.54,0,0,1,21,10.5H1.5A1.543,1.543,0,0,1,0,8.921V2.079A1.54,1.54,0,0,1,1.5.5Z" transform="translate(1706.5 -1)"/>
        <rect id="rectangle" class="cls-2" width="9" height="8" rx="1" transform="translate(1707.5 0.5)"/>
        <path id="path-4" data-name="path" class="cls-2" d="M24.5,5.732A1.75,1.75,0,0,1,23,7.465V4A1.75,1.75,0,0,1,24.5,5.732Z" transform="translate(1706.5 -1)"/>
      </g>
    </g>
    <g id="Rectangle_10" data-name="Rectangle 10" class="cls-4" transform="translate(2691 1117)">
      <rect class="cls-9" width="336" height="133" rx="9"/>
      <rect class="cls-10" x="0.25" y="0.25" width="335.5" height="132.5" rx="8.75"/>
    </g>
    <text id="Your_Complaint_Suggestion" data-name="Your Complaint &amp; Suggestion" class="cls-5" transform="translate(2890 1129)"><tspan x="48.549" y="8">Your Complaint &amp; </tspan></text>
    <text id="Complaint_Suggestion" data-name="Complaint &amp; Suggestion" class="cls-6" transform="translate(2780 1074.479)"><tspan x="7.41" y="10">Complaint &amp; Suggestion</tspan></text>
    <g class="cls-12" transform="matrix(1, 0, 0, 1, 0, 0)">
      <rect id="rectangle-40-2" data-name="rectangle-40" class="cls-7" width="285" height="41" rx="20.5" transform="translate(2715 1275)"/>
    </g>
    <text id="Send" class="cls-8" transform="translate(2858 1303)"><tspan x="-18.336" y="0">Send</tspan></text>
    <path id="Back" class="cls-7" d="M7.992,0l.772.772L1.55,8.764l7.214,7.992-.772.772L0,8.764Z" transform="translate(2682 995)"/>
  </g>
</svg>
